…
The clinical data for each study can be found at the last column of
`brca_clinical`: `clinicalData`.

As an example, to have a glimpse at a few selected variables of the
clinical data from the METABRIC project:

``` r
library(brcaClinical)

metabric_clinical <- brca_clinical$clinicalData$brca_metabric
dplyr::select(metabric_clinical,
              patientId,
              AGE_AT_DIAGNOSIS,
              HISTOLOGICAL_SUBTYPE)
#> # A tibble: 2,509 x 3
#>    patientId AGE_AT_DIAGNOSIS HISTOLOGICAL_SUBTYPE
#>    <chr>     <chr>            <chr>               
#>  1 MB-0000   75.65            Ductal/NST          
#>  2 MB-0002   43.19            Ductal/NST          
#>  3 MB-0005   48.87            Ductal/NST          
#>  4 MB-0006   47.68            Mixed               
#>  5 MB-0008   76.97            Mixed               
#>  6 MB-0010   78.77            Ductal/NST          
#>  7 MB-0014   56.45            Ductal/NST          
#>  8 MB-0020   70.0             Lobular             
#>  9 MB-0022   89.08            Mixed               
#> 10 MB-0025   76.24            Ductal/NST          
#> # … with 2,499 more rows
```
…
